a,b,c,d,e,f,g,h,i,j,k,l,m,n
Scotland,934,485,449,729,68,140,846,711,414,203,29,37,323
Aberdeen City,54,29,40,47,2,6,50,43,38,25,0,2,18
Aberdeenshire,24,10,11,15,2,4,20,15,11,10,2,1,7
Angus,18,10,9,16,2,3,17,14,10,0,2,0,4
Argyll & Bute,8,3,0,4,1,0,7,7,5,1,1,0,2
City of Edinburgh,84,34,48,64,6,17,74,64,48,24,5,3,37
Clackmannanshire,5,2,2,3,1,1,5,3,0,0,0,0,1
Dumfries & Galloway,22,14,11,20,2,1,22,15,14,2,1,0,10
Dundee City,57,42,27,51,1,4,53,48,19,8,0,0,14
East Ayrshire,24,14,15,22,0,2,22,17,8,5,0,0,5
East Dunbartonshire,8,3,2,4,1,0,5,6,3,4,0,1,3
East Lothian,12,6,2,9,2,3,11,8,7,2,2,1,10
East Renfrewshire,4,1,2,2,3,0,4,3,2,1,0,1,0
Falkirk,16,9,11,13,1,4,15,11,7,5,0,0,7
Fife,66,42,32,55,5,9,65,55,45,8,4,2,21
Glasgow City,192,95,96,155,17,23,175,153,56,28,2,10,66
Highland,24,10,10,17,0,8,22,18,12,4,1,1,6
Inverclyde,23,9,15,18,3,3,22,17,10,5,1,1,8
Midlothian,19,6,9,13,0,6,16,11,7,5,1,2,8
Moray,7,3,4,5,0,1,6,6,5,2,0,0,5
Na h-Eileanan Siar,3,0,0,0,0,0,0,1,1,0,0,0,1
North Ayrshire,25,15,15,19,2,3,22,20,11,5,0,2,8
North Lanarkshire,53,28,12,33,6,11,47,35,22,19,3,1,12
Orkney Islands,1,1,0,1,0,0,1,1,1,1,1,0,0
Perth & Kinross,19,11,6,13,0,2,14,13,10,2,0,0,5
Renfrewshire,38,18,20,31,3,4,36,33,12,14,1,3,17
Scottish Borders,13,9,6,10,1,4,12,7,5,3,0,0,5
Shetland Islands,2,2,1,2,1,0,2,1,1,0,0,0,2
South Ayrshire,12,5,5,10,0,1,10,7,6,4,0,1,4
South Lanarkshire,49,23,19,35,4,9,44,41,13,6,1,1,17
Stirling,15,8,8,12,1,8,15,13,10,2,0,0,2
West Dunbartonshire,15,12,6,14,0,1,14,12,7,3,1,2,6
West Lothian,22,11,5,16,1,2,18,13,8,5,0,2,12
