NHS Board area,All drug-related deaths,date
Scotland,244.0,1996
Scotland,224.0,1997 
Scotland,249.0,1998 
Scotland,291.0,1999 
Scotland,292.0,2000 
Scotland,332.0,2001 
Scotland,382.0,2002
Scotland,317.0,2003
Scotland,356.0,2004 
Scotland,336.0,2005 
Scotland,421.0,2006 
Scotland,455.0,2007 
Scotland,574.0,2008 
Scotland,545.0,2009 
Scotland,485.0,2010
Scotland,584.0,2011
Scotland,581.0,2012
Scotland,526.0,2013
Scotland,613.0,2014
Scotland,706.0,2015
Scotland,867.0,2016
Scotland,934.0,2017