calendar_date,area_name,heroin_morphine_deaths_value,population_value
2007-01-01,Fife,19,10675
2008-01-01,Fife,23,9750
2009-01-01,Fife,19,13075
2010-01-01,Fife,21,15200
2011-01-01,Fife,16,16775
2012-01-01,Fife,14,16625
2013-01-01,Fife,26,16525
2014-01-01,Fife,27,13375
2015-01-01,Fife,29,12125
2016-01-01,Fife,30,10025
2017-01-01,Fife,42,8075
